[
  {
    "normalForm": "aig",
    "id": 825000,
    "notes": "Definite form: aig an",
    "inflected": true,
    "singFirst": [ "agam" ],
    "singSecond": [ "agad" ],
    "singThirdMasc": [ "aige" ],
    "singThirdFem": [ "aice" ],
    "plurFirst": [ "againn" ],
    "plurSecond": [ "agaibh" ],
    "plurThird": [ "aca" ]
  },
  {
    "normalForm": "air",
    "id": 825001,
    "notes": "Definite form: air an",
    "inflected": true,
    "singFirst": [ "orm" ],
    "singSecond": [ "ort" ],
    "singThirdMasc": [ "air" ],
    "singThirdFem": [ "oirre" ],
    "plurFirst": [ "oirnn" ],
    "plurSecond": [ "oirbh" ],
    "plurThird": [ "orra" ]
  },
  {
    "normalForm": "ann",
    "id": 825002,
    "notes": "Definite form: anns an",
    "inflected": true,
    "singFirst": [ "annam" ],
    "singSecond": [ "annad" ],
    "singThirdMasc": [ "ann" ],
    "singThirdFem": [ "innte" ],
    "plurFirst": [ "annainn" ],
    "plurSecond": [ "annaibh" ],
    "plurThird": [ "annta" ]
  },
  {
    "normalForm": "à",
    "id": 825003,
    "notes": "Definite form: às an",
    "inflected": true,
    "singFirst": [ "asam" ],
    "singSecond": [ "asad" ],
    "singThirdMasc": [ "às" ],
    "singThirdFem": [ "aisde" ],
    "plurFirst": [ "asainn" ],
    "plurSecond": [ "asaibh" ],
    "plurThird": [ "asda" ]
  },
  {
    "normalForm": "bho",
    "id": 825004,
    "notes": "Definite form: bhon",
    "inflected": true,
    "singFirst": [ "bhuam" ],
    "singSecond": [ "bhuat" ],
    "singThirdMasc": [ "bhuaithe" ],
    "singThirdFem": [ "bhuaipe" ],
    "plurFirst": [ "bhuainn" ],
    "plurSecond": [ "bhuaibh" ],
    "plurThird": [ "bhuapa" ]
  },
  {
    "normalForm": "de",
    "id": 825005,
    "notes": "Definite form: dhen; de may also be spelled as dhe in some dialects.",
    "inflected": true,
    "singFirst": [ "dhiom" ],
    "singSecond": [ "dhiot" ],
    "singThirdMasc": [ "dheth" ],
    "singThirdFem": [ "dhith" ],
    "plurFirst": [ "dhinn" ],
    "plurSecond": [ "dhibh" ],
    "plurThird": [ "dhuibh" ]
  },
  {
    "normalForm": "do",
    "id": 825006,
    "notes": "Definite form: don/dhan",
    "inflected": true,
    "singFirst": [ "dhomh" ],
    "singSecond": [ "dhut" ],
    "singThirdMasc": [ "dha" ],
    "singThirdFem": [ "dhi" ],
    "plurFirst": [ "dhuinn" ],
    "plurSecond": [ "dhuibh" ],
    "plurThird": [ "dhaibh" ]
  },
  {
    "normalForm": "fo",
    "id": 825007,
    "notes": "Definite form: fon",
    "inflected": true,
    "singFirst": [ "fodham" ],
    "singSecond": [ "fodhad" ],
    "singThirdMasc": [ "fodha" ],
    "singThirdFem": [ "foidhpe" ],
    "plurFirst": [ "fodhainn" ],
    "plurSecond": [ "fodhaibh" ],
    "plurThird": [ "fodhpa" ]
  },
  {
    "normalForm": "eadar",
    "id": 825008,
    "notes": "Definite form: eadar an",
    "inflected": true,
    "singFirst": [],
    "singSecond": [],
    "singThirdMasc": [],
    "singThirdFem": [],
    "plurFirst": [ "eadarainn" ],
    "plurSecond": [ "eadaraibh" ],
    "plurThird": [ "eatorra" ]
  },
  {
    "normalForm": "gu",
    "id": 825009,
    "notes": "Definite form: chun",
    "inflected": true,
    "singFirst": [ "thugam" ],
    "singSecond": [ "thugad" ],
    "singThirdMasc": [ "thuige" ],
    "singThirdFem": [ "thuice" ],
    "plurFirst": [ "thugainn" ],
    "plurSecond": [ "thugaibh" ],
    "plurThird": [ "thuca" ]
  },
  {
    "normalForm": "gun",
    "id": 825010
  },
  {
    "normalForm": "le",
    "id": 825011,
    "notes": "Definite form: leis an",
    "inflected": true,
    "singFirst": [ "leam" ],
    "singSecond": [ "leat" ],
    "singThirdMasc": [ "leis" ],
    "singThirdFem": [ "leatha" ],
    "plurFirst": [ "leinn" ],
    "plurSecond": [ "leibh" ],
    "plurThird": [ "leotha" ]
  },
  {
    "normalForm": "mar",
    "id": 825012
  },
  {
    "normalForm": "mu",
    "id": 825013,
    "notes": "Definite form: mun",
    "inflected": true,
    "singFirst": [ "umam" ],
    "singSecond": [ "umad" ],
    "singThirdMasc": [ "uime" ],
    "singThirdFem": [ "uimpe" ],
    "plurFirst": [ "umainn" ],
    "plurSecond": [ "umaibh" ],
    "plurThird": [ "umpa" ]
  },
  {
    "normalForm": "o",
    "id": 825014,
    "notes": "Definite form: on",
    "inflected": true,
    "singFirst": [ "uam" ],
    "singSecond": [ "uat" ],
    "singThirdMasc": [ "uaithe" ],
    "singThirdFem": [ "uaipe" ],
    "plurFirst": [ "uainn" ],
    "plurSecond": [ "uaibh" ],
    "plurThird": [ "uapa" ]
  },
  {
    "normalForm": "rè",
    "id": 825015
  },
  {
    "normalForm": "ri",
    "id": 825016,
    "notes": "Definite form: ris an",
    "inflected": true,
    "singFirst": [ "rium" ],
    "singSecond": [ "riut" ],
    "singThirdMasc": [ "ris" ],
    "singThirdFem": [ "rithe" ],
    "plurFirst": [ "ruinn" ],
    "plurSecond": [ "ruibh" ],
    "plurThird": [ "riutha" ]
  },
  {
    "normalForm": "ro",
    "id": 825017,
    "notes": "Definite form: ron",
    "inflected": true,
    "singFirst": [ "romham" ],
    "singSecond": [ "romhad" ],
    "singThirdMasc": [ "roimhe" ],
    "singThirdFem": [ "roimhpe" ],
    "plurFirst": [ "romhainn" ],
    "plurSecond": [ "romhaibh" ],
    "plurThird": [ "romhpa" ]
  },
  {
    "normalForm": "thar",
    "id": 825018,
    "notes": "Definite form: thar an",
    "inflected": true,
    "singFirst": [ "tharam" ],
    "singSecond": [ "tharad" ],
    "singThirdMasc": [ "thairis" ],
    "singThirdFem": [ "thairte" ],
    "plurFirst": [ "tharainn" ],
    "plurSecond": [ "tharaibh" ],
    "plurThird": [ "tharta" ]
  },
  {
    "normalForm": "trìd",
    "id": 825019,
  },
  {
    "normalForm": "tro",
    "id": 825020,
    "notes": "Definite form: tron",
    "inflected": true,
    "singFirst": [ "tromham" ],
    "singSecond": [ "tromhad" ],
    "singThirdMasc": [ "troimhe" ],
    "singThirdFem": [ "troimhpe" ],
    "plurFirst": [ "tromhainn" ],
    "plurSecond": [ "tromhaibh" ],
    "plurThird": [ "tromhpa" ]
  }
]