[
  {
    "normalForm": "chi",
    "id": 1200020,
    "plural": [ "chiow" ],
    "gender": "m"
  },
  {
    "normalForm": "roum",
    "id": 1200021,
    "synonyms": [ 1200022, 1200023 ],
    "gender": "m",
    "plural": [ "roumys" ]
  },
  {
    "normalForm": "spas",
    "id": 1200022,
    "synonyms": [ 1200021, 1200023 ],
    "gender": "m",
    "plural": [ "spassow" ]
  },
  {
    "normalForm": "stevel",
    "id": 1200023,
    "synonyms": [ 1200021, 1200022 ],
    "gender": "f",
    "plural": [ "stevellow" ]
  }
]