[
  {
    "normalForm": "bos",
    "id": 1200000,
    "present_future": {
      "has": false
    },
    "present_short": {
      "singFirst": "ov",
      "singSecond": "os",
      "singThird": "yw",
      "plurFirst": "on",
      "plurSecond": "owgh",
      "plurThird": "yns",
      "impersonal": "or"
    },
    "present_long": {
      "singFirst": "esov",
      "singSecond":[ "esos", "es" ],
      "singThird": [ "yma", "usi", "eus" ],
      "plurFirst": "eson",
      "plurSecond": "esowgh",
      "plurThird":[ "ymons", "esons" ],
      "impersonal": "eder"
    },
    "imperfect": {
      "has": false
    },
    "imperfect_short": {
      "singFirst": "en",
      "singSecond": "es",
      "singThird": "o",
      "plurFirst": "en",
      "plurSecond": "ewgh",
      "plurThird": "ens",
      "impersonal": "os"
    },
    "imperfect_long": {
      "singFirst": "esen",
      "singSecond": "eses",
      "singThird": "esa",
      "plurFirst": "esen",
      "plurSecond": "esewgh",
      "plurThird": "esens",
      "impersonal": "eses"
    },
    "future": {
      "stem": "bydh",
      "impersonal": "bedher"
    },
    "preterite": {
      "singFirst": "beuv",
      "singSecond": "beus",
      "singThird": "beu",
      "plurFirst": "beun",
      "plurSecond": "bewgh",
      "plurThird": "bons",
      "impersonal": "beus"
    },
    "conditional": {
      "singFirst": "bien",
      "singSecond": "bies",
      "singThird": "bia",
      "plurFirst": "bien",
      "plurSecond": "biewgh",
      "plurThird": "biens",
      "impersonal": "bies"
    },
    "subjunctive_present_future": {
      "singFirst": "biv",
      "singSecond": "bi",
      "singThird": "bo",
      "plurFirst": "byn",
      "plurSecond": "bowgh",
      "plurThird": "bons",
      "impersonal": "ber"
    },
    "subjunctive_imperfect": {
      "singFirst": "ben",
      "singSecond": "bes",
      "singThird": "be",
      "plurFirst": "ben",
      "plurSecond": "bewgh",
      "plurThird": "bens",
      "impersonal": "bes"
    },
    "imperative": {
      "stem": "bedh"
    }
  },
  {
    "normalForm": "y'm beus",
    "id": 1200001,
    "present_future": {
      "has": false
    },
    "present": {
      "singFirst": "y'm beus",
      "singSecond": "y'th eus",
      "singThird": [ "y'n jeves", "y's teves"],
      "plurFirst": "y'gan beus",
      "plurSecond": "y'gas beus",
      "plurThird": "y's teves",
      "impersonal": []
    },
    "imperfect": {
      "singFirst": "y'm bo",
      "singSecond": "y'th o",
      "singThird": [ "y'n jevo", "y's tevo" ],
      "plurFirst": "y'gan bo",
      "plurSecond": "y'gas bo",
      "plurThird": "y's tevo",
      "impersonal": []
    },
    "preterite": {
      "singFirst": "y'm beu",
      "singSecond": "y' feu",
      "singThird": [ "y'n jeva", " y's teva" ],
      "plurFirst": "y'gan beu",
      "plurSecond": "y'gas beu",
      "plurThird": "y's teva",
      "impersonal": []
    },
    "imperfect_habitual": {
      "singFirst": "y'm bedha",
      "singSecond": "y' fedha",
      "singThird": [ "y'n jevedha", "y's tevedha" ],
      "plurFirst": "y'gan bedha",
      "plurSecond": "y'gas bedha",
      "plurThird": "y's tevedha",
      "impersonal": []
    },
    "conditional": {
      "singFirst": "y'm bia",
      "singSecond": "y' fia",
      "singThird": ["y'n jevia", "y's tevia"],
      "plurFirst": "y'gan bia",
      "plurSecond": "y'gas bia",
      "plurThird": "y's tevia"
    },
    "future": {
      "singFirst": "y'm bydh",
      "singSecond": "y' fydh",
      "singThird": [ "y'n jevydh", "y's tevydh" ],
      "plurFirst": "y'gan bydh",
      "plurSecond": "y'gas bydh",
      "plurThird": "y's tevydh",
      "impersonal": []
    },
    "subjunctive_present_future": {
      "singFirst": "y'm bo",
      "singSecond": "y' fo",
      "singThird": [ "y'n jeffo", "y's teffo" ],
      "plurFirst": "y'gan bo",
      "plurSecond": "y'gas bo",
      "plurThird": "y's teffo",
      "impersonal": []
    },
    "subjunctive_imperfect": {
      "singFirst": "y'm be",
      "singSecond": "y' fe",
      "singThird": [ "y'n jeffa", "y's teffa" ],
      "plurFirst": "y'gan be",
      "plurSecond": "y'gas be",
      "plurThird": "y's teffa",
      "impersonal": []
    },
    "imperative": {
      "has": false
    }
  },
  {
    "normalForm": "adhvesi",
    "id": 1200011,
    "imperfect": {
      "singFirst": "adhvesyn",
      "singSecond": "adhvesys",
      "singThird": "adhvesi",
      "plurFirst": "adhvesyn"
    }
  },
  {
    "normalForm": "afia",
    "id": 1200012,
    "preterite": {
      "singFirst": "afiis"
    }
  },
  {
    "normalForm": "afydhya",
    "id": 1200014
  },
  {
    "normalForm": "amma",
    "id": 1200013,
    "hasAffectation": true,
    "affectationStem": "ymm",
    "imperfect": {
      "useSecondForm": true
    }
  },
  {
    "normalForm": "aswon",
    "preterite": {
      "useSecondForm": true
    },
    "imperfect": {
      "useSecondForm": true
    }
  },
  {
    "normalForm": "attyli",
    "preterite": {
      "useSecondForm": true
    }
  },
  {
    "normalForm": "brewi",
    "preterite": {
      "useSecondForm": true
    }
  },
  {
    "normalForm": "dagrewi",
    "preterite": {
      "useSecondForm": true
    }
  },
  {
    "normalForm": "dalleth",
    "imperfect": {
      "useSecondForm": true
    }
  },
  {
    "normalForm": "danvon",
    "hasAffectation": true,
    "imperfect": {
      "useSecondForm": true
    }
  },
  {
    "normalForm": "dedhewi",
    "preterite": {
      "useSecondForm": true
    }
  },
  {
    "normalForm": "dehweles",
    "preterite": {
      "useSecondForm": true
    }
  },
  {
    "normalForm": "demedhi",
    "preterite": {
      "useSecondForm": true
    }
  },
  {
    "normalForm": "derivas",
    "preterite": {
      "useSecondForm": true
    }
  },
  {
    "normalForm": "dervyn",
    "imperfect": {
      "useSecondForm": true
    }
  },
  {
    "normalForm": "dewis",
    "imperfect": {
      "useSecondForm": true
    }
  },
  {
    "normalForm": "diank",
    "preterite": {
      "useSecondForm": true
    }
  },
  {
    "normalForm": "diberth",
    "imperfect": {
      "useSecondForm": true
    }
  },
  {
    "normalForm": "difen",
    "imperfect": {
      "useSecondForm": true
    }
  },
  {
    "normalForm": "dinewi",
    "preterite": {
      "useSecondForm": true
    }
  },
  {
    "normalForm": "dinythi",
    "preterite": {
      "useSecondForm": true
    }
  },
  {
    "normalForm": "diskrysi",
    "preterite": {
      "useSecondForm": true
    }
  },
  {
    "normalForm": "distrui",
    "preterite": {
      "useSecondForm": true
    }
  },
  {
    "normalForm": "don",
    "id": 1200006,
    "stem": "deg",
    "versions": [ "degi" ],
    "present_future": {
      "singSecond": "degedh",
      "plurFirst": "degon"
    },
    "imperfect": {
      "useSecondForm": true
    },
    "preterite": {
      "singFirst": "dug",
      "singSecond": "duges",
      "singThird": "dug",
      "plurFirst": "dugon",
      "plurSecond": "dugowgh",
      "plurThird": "dugons",
      "impersonal": "dug"
    },
    "subjunctive_present_future": {
      "stem": "dykk",
      "singThird": "dokko",
      "plurThird": "dokkons",
      "impersonal": "dokker"
    },
    "imperative": {
      "singSecond": "dog"
    }
  },
  {
    "normalForm": "dos",
    "id": 1200004,
    "present_future": {
      "singFirst": "dov",
      "singSecond": "deudh",
      "singThird": "deu",
      "plurFirst": "deun",
      "plurSecond": "dewgh",
      "plurThird": "dons",
      "impersonal": "deer"
    },
    "preterite": {
      "stem": "deuth",
      "singFirst": "deuth",
      "singSecond": "deuthys",
      "singThird": "deuth",
      "plurFirst": "deuthen",
      "plurSecond": "deuthewgh",
      "plurThird": "deuthons",
      "impersonal": "deuthes"
    },
    "imperfect": {
      "stem": "d",
      "singThird": "do",
      "impersonal": "des"
    },
    "imperative": {
      "stem": "d",
      "singSecond": "deus",
      "singThird": "des",
      "plurFirst": "deun",
      "plurThird": "dens"
    },
    "conditional": {
      "singFirst": "dothyen",
      "singSecond": "dothyes",
      "singThird": "dothya",
      "plurFirst": "dothyen",
      "plurSecond": "dothyewgh",
      "plurThird": "dothyens",
      "impersonal": "dothyes"
    },
    "perfect": {
      "singFirst": "deuvev",
      "singSecond": "deuves",
      "singThird": "deuva",
      "plurFirst": "deuven",
      "plurSecond": "deuvewgh",
      "plurThird": "deuvons",
      "impersonal": "deuves"
    },
    "subjunctive_present_future": {
      "singFirst": "dyffiv",
      "singSecond": "dyffi",
      "singThird": "deffo",
      "plurFirst": "dyffyn",
      "plurSecond": "dyffowgh",
      "plurThird": "deffons",
      "impersonal": "deffer"
    },
    "subjunctive_imperfect": {
      "stem": "deff",
      "impersonal": "deffes"
    }
  },
  {
    "normalForm": "dri",
    "id": 1200007,
    "present_future": {
      "singFirst": "drov",
      "singSecond": "dredh",
      "singThird": "dre",
      "plurFirst": "dren",
      "plurSecond": "drowgh",
      "plurThird": "drons",
      "impersonal": "drer"
    },
    "imperfect": {
      "singFirst": "dren",
      "singSecond": "dres",
      "singThird": "dri",
      "plurFirst": "dren",
      "plurSecond": "drewgh",
      "plurThird": "drens",
      "impersonal": "dres"
    },
    "preterite": {
      "singFirst": "dres",
      "singSecond": "dresys",
      "singThird": "dros",
      "plurFirst": "dresen",
      "plurSecond": "dresowgh",
      "plurThird": "drosons",
      "impersonal": "dros"
    },
    "conditional": {
      "stem": "dro"
    },
    "subjunctive_present_future": {
      "singFirst": "drylliv",
      "singSecond": "drylli",
      "singThird": "drollo",
      "plurFirst": "dryllyn",
      "plurSecond": "dryllowgh",
      "plurThird": "drollons",
      "impersonal": "droller"
    },
    "subjunctive_imperfect": {
      "singFirst": "drollen",
      "singSecond": "drolles",
      "singThird": "drolla",
      "plurFirst": "drollen",
      "plurSecond": "drollewgh",
      "plurThird": "drollens",
      "impersonal": "drollys"
    },
    "imperative": {
      "singSecond": ["dro", "doro", "doroy" ],
      "singThird": "dres",
      "plurFirst": "dren",
      "plurSecond": "drewgh",
      "plurThird": "drens"
    }
  },
  {
    "normalForm": "dybri",
    "preterite": {
      "useSecondForm": true
    }
  },
  {
    "normalForm": "dyllo",
    "id": 1200010,
    "present_future": {
      "singThird": "dyllo"
    },
    "imperfect": {
      "useSecondForm": true
    },
    "preterite": {
      "stem": "delle",
      "singFirst": "delles",
      "singThird": "dellos",
      "impersonal": "dellos"
    },
    "conditional": {
      "singFirst": "dyllsen",
      "singSecond": "dyllses",
      "singThird": "dyllsa",
      "plurFirst": "dyllsen",
      "plurSecond": "dyllsewgh",
      "plurThird": "dyllsens",
      "impersonal": "dyllsys"
    },
    "subjunctive_present_future": {
      "singThird": "dello",
      "plurThird": "dellons"
    },
    "subjunctive_imperfect": {
      "stem": "dell"
    }
  },
  {
    "normalForm": "dynerghi",
    "preterite": {
      "useSecondForm": true
    }
  },
  {
    "normalForm": "ergi",
    "preterite": {
      "useSecondForm": true
    }
  },
  {
    "normalForm": "folhwerthin",
    "imperfect": {
      "useSecondForm": true
    }
  },
  {
    "normalForm": "gallos",
    "stem": "gyll",
    "present_future": {
      "singFirst": "gallav"
    },
    "preterite": {
      "singThird": "gallas",
      "plurThird": "gallons",
      "impersonal": "gallas"
    },
    "imperfect": {
      "useSecondForm": true
    },
    "conditional": {
      "stem": "gall",
      "impersonal": [ "galses", "galser" ]
    },
    "subjunctive_present_future": {
      "singThird": "gallo",
      "pluralThird": "gallons",
      "impersonal": "galler"
    },
    "subjunctive_imperfect": {
      "stem": "gall",
      "impersonal": "galles"
    },
    "imperative": {
      "has": false,
      "singSecond": "galles",
      "plurSecond": "gyllowgh",
      "plurThird": "gallons"
    }
  },
  {
    "normalForm": "godhav",
    "preterite": {
      "useSecondForm": true
    },
    "imperfect": {
      "useSecondForm": true
    }
  },
  {
    "normalForm": "godhvos",
    "id": 1200002,
    "present_future": {
      "stem": "godh",
      "singFirst": "gonn",
      "singSecond": "godhes",
      "singThird": "gor",
      "plurFirst": "godhon",
      "impersonal": "godhor"
    },
    "preterite": {
      "singFirst": "godhvev",
      "singSecond": "godhves",
      "singThird": "godhva",
      "plurFirst": "godhven",
      "plurSecond": "godhvewgh",
      "plurThird": "godhvens",
      "impersonal": "godhves"
    },
    "imperfect": {
      "stem": "godhy",
      "impersonal": "godhyes"
    },
    "conditional": {
      "singFirst": "godhvien",
      "singSecond": "godhvies",
      "singThird": "godhvia",
      "plurFirst": "godhvien",
      "plurSecond": "godhviewgh",
      "plurThird": "godhviens",
      "impersonal": "godhvies"
    },
    "future": {
      "stem": "godhvedh",
      "singThird": "godhvydh",
      "impersonal": "godhvedher"
    },
    "subjunctive_present_future": {
      "singFirst": "godhviv",
      "singSecond": "godhvi",
      "singThird": "godhvo",
      "plurFirst": "godhvyn",
      "plurSecond": "godhvowgh",
      "plurThird": "godhvons",
      "impersonal": "godher"
    },
    "subjunctive_imperfect": {
      "stem": "godhv",
      "singThird": "godhve",
      "impersonal": "godhves"
    },
    "imperative": {
      "stem": "godhvedh",
      "singSecond": "godhvydh",
      "singThird": "godhveses",
      "pluralFirst": "godhvedhen"
    }
  },
  {
    "normalForm": "gonis",
    "imperfect": {
      "useSecondForm": true
    }
  },
  {
    "normalForm": "gorhemynna",
    "preterite": {
      "useSecondForm": true
    }
  },
  {
    "normalForm": "gorthebi",
    "preterite": {
      "useSecondForm": true
    }
  },
  {
    "normalForm": "govyn",
    "imperfect": {
      "useSecondForm": true
    }
  },
  {
    "normalForm": "gul",
    "id": 1200003,
    "stem": "gwr",
    "versions": [ "gwul" ],
    "present_future": {
      "singSecond": "gwredh",
      "singThird": "gwra",
      "plurFirst": "gwren",
      "plurSecond": "gwrewgh",
      "impersonal": "gwrer"
    },
    "preterite": {
      "stem": "gwrus",
      "singFirst": "gwrug",
      "singSecond": "gwrussys",
      "singThird": "gwrug",
      "impersonal": "gwrug"
    },
    "imperfect": {
      "singThird": "gwre",
      "impersonal": "gwres"
    },
    "conditional": {
      "stem": "gwrus"
    },
    "subjunctive_present_future": {
      "stem": "gwryll",
      "singThird": "gwrello",
      "plurThird": "gwrellons",
      "impersonal": "gwreller"
    },
    "subjunctive_imperfect": {
      "stem": "gwrell"
    },
    "imperative": {
      "singSecond": "gwra",
      "plurFirst": "gwren"
    }
  },
  {
    "normalForm": "haval",
    "hasAffectation": true,
    "affectationStem": "hevel"
  },
  {
    "normalForm": "hedhi",
    "preterite": {
      "useSecondForm": true
    }
  },
  {
    "normalForm": "hembronk",
    "imperfect": {
      "useSecondForm": true
    }
  },
  {
    "normalForm": "heveli",
    "preterite": {
      "useSecondForm": true
    }
  },
  {
    "normalForm": "hwarvos",
    "present_future": {
      "has": false
    },
    "present": {
      "singFirst": [],
      "singSecond": [],
      "singThird": "hwer",
      "plurFirst": [],
      "plurSecond": [],
      "plurThird": [],
      "impersonal": []
    },
    "imperfect": {
      "has": false
    },
    "preterite": {
      "singFirst": [],
      "singSecond": [],
      "singThird": [ "hwarva", "hwyris" ],
      "plurFirst": [],
      "plurSecond": [],
      "plurThird": [],
      "impersonal": []
    },
    "future": {
      "singFirst": [],
      "singSecond": [],
      "singThird": "hwyrvydh",
      "plurFirst": [],
      "plurSecond": [],
      "plurThird": [],
      "impersonal": []
    },
    "conditional": {
      "singFirst": [],
      "singSecond": [],
      "singThird": [ "hwarvia", "hwarvsa" ],
      "plurFirst": [],
      "plurSecond": [],
      "plurThird": [],
      "impersonal": []
    },
    "subjunctive_present_future": {
      "singFirst": [],
      "singSecond": [],
      "singThird": "hwarvo",
      "plurFirst": [],
      "plurSecond": [],
      "plurThird": [],
      "impersonal": []
    },
    "subjunctive_imperfect": {
      "singFirst": [],
      "singSecond": [],
      "singThird": "hwarva",
      "plurFirst": [],
      "plurSecond": [],
      "plurThird": [],
      "impersonal": []
    },
    "imperative": {
      "has": false
    }
  },
  {
    "normalForm": "hwerthin",
    "imperfect": {
      "useSecondForm": true
    }
  },
  {
    "normalForm": "kara",
    "hasAffectation": true
  },
  {
    "normalForm": "kemynna",
    "preterite": {
      "useSecondForm": true
    }
  },
  {
    "normalForm": "kentrewi",
    "preterite": {
      "useSecondForm": true
    }
  },
  {
    "normalForm": "kerdhes",
    "id": 1200024
  },
  {
    "normalForm": "klewes",
    "stem": "klew",
    "imperfect": {
      "singThird": "klewo",
      "impersonal": "klewes"
    },
    "subjunctive_present_future": {
      "stem": "klewv"
    },
    "subjunctive_imperfect": {
      "stem": "klewv"
    },
    "future": {
      "singFirst": [],
      "singSecond": [],
      "singThird": "klewvydh",
      "plurFirst": [],
      "plurSecond": [],
      "plurThird": [],
      "impersonal": []
    }
  },
  {
    "normalForm": "kreuni",
    "preterite": {
      "useSecondForm": true
    }
  },
  {
    "normalForm": "krysi",
    "preterite": {
      "useSecondForm": true
    }
  },
  {
    "normalForm": "lavar",
    "hasAffectation": true,
    "affectationStem": "lever"
  },
  {
    "normalForm": "lavasos",
    "imperfect": {
      "useSecondForm": true
    }
  },
  {
    "normalForm": "lystenna",
    "id": 1200019
  },
  {
    "normalForm": "minhwerthin",
    "imperfect": {
      "useSecondForm": true
    }
  },
  {
    "normalForm": "mollethi",
    "preterite": {
      "useSecondForm": true
    }
  },
  {
    "normalForm": "mos",
    "id": 1200005,
    "present_future": {
      "singFirst": "av",
      "singSecond": "edh",
      "singThird": "a",
      "plurFirst": "en",
      "plurSecond": "ewgh",
      "plurThird": "ons",
      "impersonal": "er"
    },
    "preterite": {
      "stem": "eth",
      "singFirst": "yth",
      "singSecond": "ethys",
      "singThird": "eth",
      "plurFirst": "ethen",
      "plurSecond": "ethewgh",
      "plurThird": "ethons",
      "impersonal": "es"
    },
    "imperfect": {
      "singFirst": "en",
      "singSecond": "es",
      "singThird": "e",
      "plurFirst": "en",
      "plurSecond": "ewgh",
      "plurThird": "ens",
      "impersonal": "es"
    },
    "conditional": {
      "singFirst": "gylsen",
      "singSecond": "gylses",
      "singThird": "galsa",
      "plurFirst": "gylsen",
      "plurSecond": "gylsewgh",
      "plurThird": "gylsens",
      "impersonal": []
    },
    "subjunctive_present_future": {
      "singFirst": "ylliv",
      "singSecond": "ylli",
      "singThird": "ello",
      "plurFirst": "yllyn",
      "plurSecond": "yllowgh",
      "plurThird": "ellons",
      "impersonal": "eller"
    },
    "subjunctive_imperfect": {
      "stem": "ell",
      "impersonal": "elles"
    },
    "perfect": {
      "singFirst": "galsov",
      "singSecond": "galsos",
      "singThird": "gallas",
      "plurFirst": "galson",
      "plurSecond": "galsowgh",
      "plurThird": "galsons",
      "impersonal": []
    },
    "imperative": {
      "singSecond": [ "ke", "a" ],
      "singThird": "es",
      "plurFirst": "eun",
      "plurSecond": [ "kewgh", "ewgh"],
      "plurThird": "ens"
    }
  },
  {
    "normalForm": "mynnes",
    "imperfect": {
      "useSecondForm": false
    }
  },
  {
    "normalForm": "ombrederi",
    "preterite": {
      "useSecondForm": true
    }
  },
  {
    "normalForm": "omhweles",
    "preterite": {
      "useSecondForm": true
    }
  },
  {
    "normalForm": "omladh",
    "imperfect": {
      "useSecondForm": true
    }
  },
  {
    "normalForm": "prederi",
    "preterite": {
      "useSecondForm": true
    }
  },
  {
    "normalForm": "pysi",
    "preterite": {
      "useSecondForm": true
    }
  },
  {
    "normalForm": "ri",
    "id": 1200008,
    "present_future": {
      "singFirst": "rov",
      "singSecond": "redh",
      "singThird": "re",
      "plurFirst": "ren",
      "plurSecond": "rowgh",
      "plurThird": "rons",
      "impersonal": "rer"
    },
    "imperfect": {
      "singFirst": "ren",
      "singSecond": "res",
      "singThird": "ri",
      "plurFirst": "ren",
      "plurSecond": "rewgh",
      "plurThird": "rens",
      "impersonal": "res"
    },
    "preterite": {
      "singFirst": "res",
      "singSecond": "resys",
      "singThird": "ros",
      "plurFirst": "resen",
      "plurSecond": "resowgh",
      "plurThird": "rosons",
      "impersonal": "ros"
    },
    "conditional": {
      "stem": "ro"
    },
    "subjunctive_present_future": {
      "singFirst": "rylliv",
      "singSecond": "rylli",
      "singThird": "rollo",
      "plurFirst": "ryllyn",
      "plurSecond": "ryllowgh",
      "plurThird": "rollons",
      "impersonal": "roller"
    },
    "subjunctive_imperfect": {
      "singFirst": "rollen",
      "singSecond": "rolles",
      "singThird": "rolla",
      "plurFirst": "rollen",
      "plurSecond": "rollewgh",
      "plurThird": "rollens",
      "impersonal": "rollys"
    },
    "imperative": {
      "singSecond": [ "ro", "roy" ],
      "singThird": "res",
      "plurFirst": "ren",
      "plurSecond": "rewgh",
      "plurThird": "rens"
    }
  },
  {
    "normalForm": "synsi",
    "preterite": {
      "useSecondForm": true
    }
  },
  {
    "normalForm": "tevi",
    "preterite": {
      "useSecondForm": true
    }
  },
  {
    "normalForm": "ti",
    "id": 1200009,
    "present_future": {
      "singFirst": "tov",
      "singSecond": "tedh",
      "singThird": "te",
      "plurFirst": "ten",
      "plurSecond": "towgh",
      "plurThird": "tons",
      "impersonal": "ter"
    },
    "imperfect": {
      "singFirst": "ten",
      "singSecond": "tes",
      "singThird": "te",
      "plurFirst": "ten",
      "plurSecond": "tewgh",
      "plurThird": "tens",
      "impersonal": "tes"
    },
    "preterite": {
      "singFirst": "tes",
      "singSecond": "tesys",
      "singThird": "tos",
      "plurFirst": "tesen",
      "plurSecond": "tesowgh",
      "plurThird": "tosons",
      "impersonal": "tos"
    },
    "conditional": {
      "stem": "to"
    },
    "subjunctive_present_future": {
      "singFirst": "tylliv",
      "singSecond": "tylli",
      "singThird": "tollo",
      "plurFirst": "tyllyn",
      "plurSecond": "tyllowgh",
      "plurThird": "tollons",
      "impersonal": "toller"
    },
    "subjunctive_imperfect": {
      "singFirst": "tollen",
      "singSecond": "tolles",
      "singThird": "tolla",
      "plurFirst": "tollen",
      "plurSecond": "tollewgh",
      "plurThird": "tollens",
      "impersonal": "tollys"
    },
    "imperative": {
      "singSecond": "to",
      "singThird": "teses",
      "plurFirst": "tes",
      "plurSecond": "tewgh",
      "plurThird": "tens"
    }
  },
  {
    "normalForm": "tybi",
    "preterite": {
      "useSecondForm": true
    }
  },
  {
    "normalForm": "tyli",
    "versions": [
      "talvos"
    ],
    "present_future": {
      "singFirst": "talav",
      "singThird": "tal",
      "plurThird": "talons"
    },
    "preterite": {
      "useSecondForm": true,
      "plurThird": "talons"
    },
    "imperfect": {
      "stem": "tel",
      "impersonal": "teles"
    },
    "conditional": {
      "singFirst": "talven",
      "singSecond": "talvies",
      "singThird": "talvia",
      "plurFirst": "talvien",
      "plurSecond": "talviewgh",
      "plurThird": "talviens",
      "impersonal": "talvies"
    },
    "subjunctive_present_future": {
      "singThird": "tallo",
      "plurThird": "tallons",
      "impersonal": "taller"
    },
    "subjunctive_imperfect": {
      "stem": "tallf",
      "impersonal": "tallfes"
    },
    "imperative": {
      "stem": "tel",
      "singSecond": "tal",
      "plurFirst": "telen"
    }
  },
  {
    "normalForm": "yeuni",
    "preterite": {
      "useSecondForm": true
    }
  }
]