[
    {
        "normalForm": "ag",
        "id": 510000,
        "notes": "Definite form of ag an.",
        "inflected": true,
        "singFirst": [ "agam" ],
        "singSecond": [ "agat" ],
        "singThirdMasc": [ "aige" ],
        "singThirdFem": [ "aici" ],
        "plurFirst": [ "againn" ],
        "plurSecond": [ "agaibh" ],
        "plurThird": [ "acu" ]
    },
    {
        "normalForm": "ar",
        "id": 510001,
        "notes": "Definite for of ar an.",
        "inflected": true,
        "singFirst": [ "orm" ],
        "singSecond": [ "ort" ],
        "singThirdMasc": [ "air" ],
        "singThirdFem": [ "uirthi" ],
        "plurFirst": [ "orainn" ],
        "plurSecond": [ "oraibh" ],
        "plurThird": [ "orthu" ]
    },
    {
        "normalForm": "as",
        "id": 510002,
        "notes": "Definite form of as an.",
        "inflected": true,
        "singFirst": [ "asam" ],
        "singSecond": [ "asat" ],
        "singThirdMasc": [ "as" ],
        "singThirdFem": [ "aisti" ],
        "plurFirst": [ "asainn" ],
        "plurSecond": [ "asaibh" ],
        "plurThird": [ "astu" ]
    },
    {
        "normalForm": "chuig",
        "id": 510003,
        "notes": "Definite form of chuig an.",
        "inflected": true,
        "singFirst": [ "chugam" ],
        "singSecond": [ "chugat" ],
        "singThirdMasc": [ "chuige" ],
        "singThirdFem": [ "chuici" ],
        "plurFirst": [ "chugann" ],
        "plurSecond": [ "chugaibh" ],
        "plurThird": [ "chucu" ]
    },
    {
        "normalForm": "de",
        "id": 510004,
        "notes": "Definite form of den.",
        "inflected": true,
        "singFirst": [ "díom" ],
        "singSecond": [ "díot" ],
        "singThirdMasc": [ "de" ],
        "singThirdFem": [ "di" ],
        "plurFirst": [ "dínn" ],
        "plurSecond": [ "díbh" ],
        "plurThird": [ "díobh" ]
    },
    {
        "normalForm": "do",
        "id": 510005,
        "notes": "Definate form of don.",
        "inflected": true,
        "singFirst": [ "dom" ],
        "singSecond": [ "duit" ],
        "singThirdMasc": [ "dó" ],
        "singThirdFem": [ "di" ],
        "plurFirst": [ "dúinn" ],
        "plurSecond": [ "daoibh" ],
        "plurThird": [ "dóibh" ]
    },
    {
        "normalForm": "faoi",
        "id": 510006,
        "notes": "Definite form of faoin",
        "inflected": true,
        "singFirst": [ "fúm" ],
        "singSecond": [ "fút" ],
        "singThirdMasc": [ "faoi" ],
        "singThirdFem": [ "fúithi" ],
        "plurFirst": [ "fúinn" ],
        "plurSecond": [ "fúibh" ],
        "plurThird": [ "fúthu" ]
    },
    {
        "normalForm": "i",
        "id": 510007,
        "notes": "Definite form of sa, san, sna. Form of the preposition used before a consonant.",
        "inflected": true,
        "singFirst": [ "ionam" ],
        "singSecond": [ "ionat" ],
        "singThirdMasc": [ "ann" ],
        "singThirdFem": [ "inti" ],
        "plurFirst": [ "ionainn" ],
        "plurSecond": [ "ionaibh" ],
        "plurThird": [ "iontu" ]
    },
    {
        "normalForm": "in",
        "id": 510008,
        "notes": "Definite form of sa, san sna. Form of the preposition used before a vowel.",
        "inflected": true,
        "singFirst": [ "ionam" ],
        "singSecond": [ "ionat" ],
        "singThirdMasc": [ "ann" ],
        "singThirdFem": [ "inti" ],
        "plurFirst": [ "ionainn" ],
        "plurSecond": [ "ionaibh" ],
        "plurThird": [ "iontu" ]
    },
    {
        "normalForm": "le",
        "id": 510009,
        "notes": "Definite form of leis an.",
        "inflected": true,
        "singFirst": [ "liom" ],
        "singSecond": [ "leat" ],
        "singThirdMasc": [ "leis" ],
        "singThirdFem": [ "léi" ],
        "plurFirst": [ "linn" ],
        "plurSecond": [ "libh" ],
        "plurThird": [ "leo" ]
    },
    {
        "normalForm": "ó",
        "id": 510010,
        "notes": "Definite form of ón.",
        "inflected": true,
        "singFirst": [ "uaim" ],
        "singSecond": [ "uait" ],
        "singThirdMasc": [ "uaidh" ],
        "singThirdFem": [ "uaithi" ],
        "plurFirst": [ "uainn" ],
        "plurSecond": [ "uaibh" ],
        "plurThird": [ "uathu" ]
    },
    {
        "normalForm": "roimh",
        "id": 510011,
        "notes": "Definite form of roimh an.",
        "inflected": true,
        "singFirst": [ "romham" ],
        "singSecond": [ "romhat" ],
        "singThirdMasc": [ "roimhe" ],
        "singThirdFem": [ "roimpi" ],
        "plurFirst": [ "roimhainn" ],
        "plurSecond": [ "romhaibh" ],
        "plurThird": [ "rompu" ]
    }
]