[
    {
     "normalForm": "strah",
     "id": 1000000
    },
    {
     "normalForm": "ping",
     "id": 1000001
    },
    {
     "normalForm": "aarnieu",
     "id": 1000002
    },
    {
     "normalForm": "carrey",
     "id": 1000003
    },
    {
     "normalForm": "feeal",
     "id": 1000004
    },
    {
     "normalForm": "fiddyl",
     "id": 1000005
    },
    {
     "normalForm": "faaie",
     "id": 1000006
    },
    {
     "normalForm": "eeast",
     "id": 1000007
    },
    {
     "normalForm": "coraa",
     "id": 1000008
    },
    {
     "normalForm": "coloartys",
     "id": 1000009
    },
    {
     "normalForm": "moot",
     "id": 1000010
    },
    {
     "normalForm": "bwoalleyder",
     "id": 1000011
    }
]