[
  {
    "normalForm": "â",
    "id": 25009,
    "versions": [ "ag"],
    "related": [ 25004, 25005 ],
    "notes": "The circumflex is used to distinguish the word from \"a\" rather than indicate vowel length. Â triggers the aspirate mutation. The version ag is used before vowels, and does not trigger the aspirate mutation."
  },
  {
    "normalForm": "acha",
    "id": 25000,
    "notes": "Acha is used with indefinite nouns, while definite nouns use 'ar'",
    "related": [ 25001 ]
  },
  {
    "normalForm": "am",
    "id": 25010,
    "inflected": true,
    "singFirst": [ "amdana" ],
    "singSecond": [ "amdanat" ],
    "singThirdMasc": [ "amdano" ],
    "singThirdFem": [ "amdani" ],
    "plurFirst": [ "amdanon" ],
    "plurSecond": [ "amdanoch" ],
    "plurThird": [ "amdanyn" ]
  },
  {
    "normalForm": "ar",
    "id": 25001,
    "notes": "Definite nouns use 'ar', while acha is used with indefinite nouns",
    "related": [ 25000 ],
    "inflected": true,
    "singFirst": [ "arna" ],
    "singSecond": [ "arnat" ],
    "singThirdMasc": [ "arno" ],
    "singThirdFem": [ "arni" ],
    "plurFirst": [ "arnon" ],
    "plurSecond": [ "arnoch" ],
    "plurThird": [ "arnyn" ]
  },
  {
    "normalForm": "at",
    "id": 25016,
    "inflected": true,
    "singFirst": [ "ata" ],
    "singSecond": [ "atat" ],
    "singThirdMasc": [ "ato" ],
    "singThirdFem": [ "ati" ],
    "plurFirst": [ "aton" ],
    "plurSecond": [ "atoch" ],
    "plurThird": [ "atyn" ]
  },
  {
    "normalForm": "ar ôl"
  },
  {
    "normalForm": "cyn",
    "id": 25017
  },
  {
    "normalForm": "dan",
    "inflected": true,
    "singFirst": [ "dana" ],
    "singSecond": [ "danat" ],
    "singThirdMasc": [ "dano" ],
    "singThirdFem": [ "dani" ],
    "plurFirst": [ "danon" ],
    "plurSecond": [ "danoch" ],
    "plurThird": [ "danyn" ]
  },
  {
    "normalForm": "dros",
    "verions": [ "tros" ],
    "inflected": true,
    "singFirst": [ "drosta" ],
    "singSecond": [ "drostat" ],
    "singThirdMasc": [ "drosto" ],
    "singThirdFem": [ "drosti" ],
    "plurFirst": [ "droston" ],
    "plurSecond": [ "drostoch" ],
    "plurThird": [ "drostyn" ]
  },
  {
    "normalForm": "efo",
    "id": 25004,
    "related": [ 25005, 25009 ],
    "versions": [ "hefo" ]
  },
  {
    "normalForm": "erbyn",
    "id": 25014
  },
  {
    "normalForm": "ers",
    "id": 25015
  },
  {
    "normalForm": "fel",
    "id": 25011
  },
  {
    "normalForm": "gan",
    "id": 25008,
    "related": [ 25005 ],
    "notes": "Gan is in the north often used to express possession rather than 'gyda' which is used in the south. The words are interchangeable in context, but sentence structure differ so you are not able to simply substitute one for the other.\n\nIt is sometimes heard as 'gyn'",
    "inflected": true,
    "singFirst": [ "gen", "gyn" ],
    "singSecond": [ "gen", "gyn" ],
    "singThirdMasc": [ "ganddo", "gynno" ],
    "singThirdFem": [ "ganddi", "gynni" ],
    "plurFirst": [ "ganddon", "gynnon" ],
    "plurSecond": [ "ganddoch", "gynnoch", "gennoch" ],
    "plurThird": [ "ganddyn", "gennyn" ]
  },
  {
    "normalForm": "ger",
    "id": 25012
  },
  {
    "normalForm": "gyda",
    "id": 25005,
    "related": [ 25004, 25008 ],
    "versions": [ "gydag" ],
    "notes": "Becomes 'gydag' in front of a vowel."
  },
  {
    "normalForm": "heb",
    "inflected": true,
    "singFirst": [ "hebdda" ],
    "singSecond": [ "hebddat" ],
    "singThirdMasc": [ "hebddo" ],
    "singThirdFem": [ "hebddi" ],
    "plurFirst": [ "hebddon" ],
    "plurSecond": [ "hebddoch" ],
    "plurThird": [ "hebddyn" ]
  },
  {
    "normalForm": "megis"
  },
  {
    "normalForm": "mewn",
    "id": 25002,
    "related": [ 25003 ],
    "notes": "Mewn is used for indefinite nouns while yn is used for definite nouns."
  },
  {
    "normalForm": "i",
    "id": 25006,
    "inflected": true,
    "singFirst": [ "i", "imi" ],
    "singSecond": [ "i" ],
    "singThirdMasc": [ "iddo" ],
    "singThirdFem": [ "iddi" ],
    "plurFirst": [ "i", "inni" ],
    "plurSecond": [ "i" ],
    "plurThird": [ "iddyn" ]
  },
  {
    "normalForm": "is"
  },
  {
    "normalForm": "o",
    "id": 25007,
    "inflected": true,
    "notes": "The versions with -ho- is closer to the literary standard form, while those without are usually encountered in speech.",
    "singFirst": [ "ona", "ono", "ohona" ],
    "singSecond": [ "onat", "onot", "ohonat" ],
    "singThirdMasc": [ "ono", "ohono" ],
    "singThirdFem": [ "oni", "ohoni" ],
    "plurFirst": [ "onon", "ohonon" ],
    "plurSecond": [ "onoch", "ohonoch" ],
    "plurThird": [ "onyn", "ohonyn" ]
  },
  {
    "normalForm": "rhag",
    "inflected": true,
    "singFirst": [ "rhagdda" ],
    "singSecond": [ "rhagddat" ],
    "singThirdMasc": [ "rhagddo" ],
    "singThirdFem": [ "rhagddi" ],
    "plurFirst": [ "rhagddon" ],
    "plurSecond": [ "rhagddoch" ],
    "plurThird": [ "rhagddyn" ]
  },
  {
    "normalForm": "rhwng",
    "inflected": true,
    "singFirst": [ "rhyngdda" ],
    "singSecond": [ "rhyngddat" ],
    "singThirdMasc": [ "rhyngddo" ],
    "singThirdFem": [ "rhyngddi" ],
    "plurFirst": [ "rhyngddon" ],
    "plurSecond": [ "rhyngddoch" ],
    "plurThird": [ "rhyngddyn" ]
  },
  {
    "normalForm": "serch"
  },
  {
    "normalForm": "tan"
  },
  {
    "normalForm": "trwy",
    "versions": [ "drwy" ]
  },
  {
    "normalForm": "tu"
  },
  {
    "normalForm": "tua",
    "versions": [ "tuag" ],
    "notes": "Tuag is used before vowels"
  },
  {
    "normalForm": "uwchben"
  },
  {
    "normalForm": "wedi",
    "versions": [ "'di" ]
  },
  {
    "normalForm": "wnc"
  },
  {
    "normalForm": "wrth"
  },
  {
    "normalForm": "ymhlith"
  },
  {
    "normalForm": "ymysg"
  },
  {
    "normalForm": "yn",
    "id": 25003,
    "related": [ 25002 ],
    "versions": [ "ym", "yng"],
    "notes": "Yn is used for definite nouns, while indefinite nouns use 'mewn'. Yn becomes ym in front of the letter 'm' and yng before 'ng'",
    "inflected": true,
    "singFirst": [ "yndda" ],
    "singSecond": [ "ynddat" ],
    "singThirdMasc": [ "ynddo" ],
    "singThirdFem": [ "ynddi" ],
    "plurFirst": [ "ynddon" ],
    "plurSecond": [ "ynddoch" ],
    "plurThird": [ "ynddyn" ]
  }
]
