[
  {
    "en": [ "big" ],
    "br": [ 100030, 100031, 100032, 100033 ],
    "gd": [ 850000 ]
  },
  {
    "ignoreDuplicate": true,
    "en": [ "good" ],
    "br": [ 100034 ],
    "gd": [ 850001 ]
  },
  {
    "en": [ "small" ],
    "br": [ 100035 ],
    "gd": [ 850002 ]
  },
  {
    "en": [ "pretty" ],
    "br": [ 100036 ],
    "gd": [ 850003 ]
  },
  {
    "en": [ "bad" ],
    "br": [ 100010, 100012 ],
    "cy": [ 10000 ],
    "gd": [ 850004 ]
  },
  {
    "ignoreDuplicate": true,
    "en": [ "evil" ],
    "br": [ 100010, 100012 ],
    "cy": [ 10000 ]
  },
  {
    "ignoreDuplicate": true,
    "en": [ "wrong" ],
    "br": [ 100010, 100012 ]
  },
  {
    "en": [ "slow" ],
    "br": [ 100037 ],
    "gd": [ 850005 ]
  },
  {
    "en": [ "red" ],
    "br": [ 100038 ],
    "gd": [ 850006 ]
  },
  {
    "ignoreDuplicate": true,
    "en": [ "orange" ],
    "br": [ 100039 ],
    "gd": [ 850007 ]
  },
  {
    "en": [ "yellow" ],
    "br": [ 100040 ],
    "gd": [ 850008 ]
  },
  {
    "ignoreDuplicate": true,
    "en": [ "green" ],
    "br": [ 100041 ],
    "gd": [ 850009 ]
  },
  {
    "ignoreDuplicate": true,
    "en": [ "blue" ],
    "br": [ 100011 ],
    "gd": [ 850010 ]
  },
  {
    "en": [ "purple" ],
    "br": [ 100041 ],
    "gd": [ 850011 ]
  },
  {
    "en": [ "white" ],
    "br": [ 100042 ],
    "gd": [ 850012 ]
  },
  {
    "en": [ "gray" ],
    "br": [ 100043 ],
    "gd": [ 850013 ]
  },
  {
    "ignoreDuplicate": true,
    "en": [ "black" ],
    "br": [ 100044 ],
    "gd": [ 850014 ]
  },
  {
    "en": [ "early" ],
    "br": [ 100045 ],
    "gd": [ 850015 ]
  },
  {
    "en": [ "late" ],
    "br": [ 100046 ],
    "gd": [ 850016, 850028 ]
  },
  {
    "en": [ "old" ],
    "br": [ 100047 ],
    "gd": [ 850017 ]
  },
  {
    "en": [ "young" ],
    "br": [ 100048 ],
    "gd": [ 850018 ]
  },
  {
    "en": [ "hot" ],
    "gd": [ 850019 ]
  },
  {
    "ignoreDuplicate": true,
    "en": [ "warm" ],
    "gd": [ 850020 ]
  },
  {
    "ignoreDuplicate": true,
    "en": [ "cold" ],
    "gd": [ 850021 ]
  },
  {
    "en": [ "frozen" ],
    "gd": [ 850022 ]
  },
  {
    "en": [ "sunny" ],
    "gd": [ 850023 ]
  },
  {
    "en": [ "cloudy" ],
    "gd": [ 850024 ]
  },
  {
    "en": [ "windy" ],
    "gd": [ 850025 ]
  },
  {
    "en": [ "foggy" ],
    "gd": [ 850026 ]
  },
  {
    "en": [ "misty" ],
    "gd": [ 850026 ]
  },
  {
    "en": [ "fast" ],
    "gd": [ 850028 ]
  }
]