[
  {
    "en": [ "at" ],
    "cy": [ 25010 ],
    "gd": [ 825000 ],
    "ga": [ 510000 ],
    "kw": [ 1200018 ]
  },
  {
    "en": [ "on" ],
    "cy": [ 25000, 25001 ],
    "gd": [ 825001 ],
    "ga": [ 510001 ]
  },
  {
    "en": [ "in" ],
    "gd": [ 825002 ],
    "ga": [ 510007, 510008 ]
  },
  {
    "en": [ "from" ],
    "gd": [ 825003, 825004, 825005, 825014 ],
    "ga": [ 510002, 510004, 510010 ]
  },
  {
    "en": [ "since" ],
    "gd": [ 825004, 825014 ],
    "ga": [ 510010 ]
  },
  {
    "en": [ "of" ],
    "gd": [ 825005 ],
    "ga": [ 510004 ]
  },
  {
    "en": [ "for" ],
    "cy": [ 25016, 25010, 25006 ],
    "gd": [ 825006 ],
    "ga": [ 510005 ],
    "kw": [ 1200017 ]
  },
  {
    "en": [ "below" ],
    "gd": [ 825007 ],
    "ga": [ 510006 ]
  },
  {
    "en": [ "about" ],
    "cy": [ 25010 ],
    "ga": [ 510006 ],
    "gd": [ 825013 ]
  },
  {
    "en": [ "between" ],
    "gd": [ 825008 ]
  },
  {
    "en": [ "to" ],
    "cy": [ 25016, 25006 ],
    "br": [ 100023 ],
    "gd": [ 825009, 825006, 825016 ],
    "ga": [ 510003, 510005 ],
    "kw": [ 1200015 ]
  },
  {
    "en": [ "without" ],
    "br": [ 100049 ],
    "gd": [ 825010 ]
  },
  {
    "en": [ "with" ],
    "cy": [ 25009 ],
    "br": [ 100024 ],
    "gd": [ 825011 ],
    "ga": [ 510009 ],
    "kw": [ 1200016 ]
  },
  {
    "en": [ "by" ],
    "cy": [ 25009 ],
    "gd": [ 825011, 825016 ],
    "ga": [ 510009 ]
  },
  {
    "en": [ "like" ],
    "gd": [ 825012 ]
  },
  {
    "en": [ "as" ],
    "gd": [ 825012 ]
  },
  {
    "en": [ "during" ],
    "gd": [ 825015 ]
  },
  {
    "en": [ "before" ],
    "cy": [ 25017 ],
    "gd": [ 825017 ],
    "ga": [ 510011 ]
  },
  {
    "en": [ "beyond" ],
    "gd": [ 825018 ]
  },
  {
    "en": [ "through" ],
    "gd": [ 825019, 825020 ]
  },
  {
    "en": [ "against" ],
    "kw": [ 1200018 ]
  }
]